Introduction to tidyverse. Day 2.
…
Now, looks a bit better and we are ready for some filtering and calculations!

4 dplyr basics

Dplyr is a grammar of data manipulation, providing a consistent set of verbs that help you solve the most common data manipulation challenges.

Dplyr provides an alternative syntax for chaining or combining multiple functions, or calling a single function:

select(initial_data_t, SiO2)

## # A tibble: 143 x 1
##     SiO2
##    <dbl>
##  1  0.02
##  2  0.02
##  3  0.04
##  4  0.02
##  5  0.11
##  6 NA   
##  7 NA   
##  8 NA   
##  9 NA   
## 10 NA   
## #  with 133 more rows

which is the same as this

initial_data_t %>%
  select(SiO2)

## # A tibble: 143 x 1
##     SiO2
##    <dbl>
##  1  0.02
##  2  0.02
##  3  0.04
##  4  0.02
##  5  0.11
##  6 NA   
##  7 NA   
##  8 NA   
##  9 NA   
## 10 NA   
## #  with 133 more rows
…
Note, the same could be written as:

filter(initial_data_t, Al2O3 > 50 & `BeO calc.` <= 19)

To use filtering effectively, you have to know how to select the observations that you want using the comparison operators. R provides the standard suite: >, >=, <, <=, != (not equal), and == (equal).

Multiple arguments to filter() are combined with and: every expression must be true in order for a row to be included in the output. For other types of combinations, youll need to use Boolean operators yourself: & is and, | is or, and ! is not. Additionally, theres a useful short-hand for selecting values satisfying multiple criteria using x %in% y. This will select every row where x is one of the values in y.

initial_data_t %>% 
  filter(Origin %in% c('Magmatic leucogranite', 'Contaminated ultrabasic rock'))

## # A tibble: 54 x 43
##    Sample Origin Reference  SiO2  TiO2 Al2O3 Ga2O3  V2O3 Cr2O3 Sc2O3  Y2O3
##    <chr>  <chr>  <chr>     <dbl> <dbl> <dbl> <dbl> <dbl> <dbl> <dbl> <dbl>
##  1 analy Magma Merino e  0.02  0.62  79.6    NA    NA  0.03    NA    NA
##  2 analy Magma Merino e  0.02  0.11  78.6    NA    NA  0.02    NA    NA
##  3 analy Magma <NA>       0.04  0.23  80.4    NA    NA  0.04    NA    NA
##  4 analy Magma <NA>       0.02  0.54  78.3    NA    NA  0.04    NA    NA
##  5 analy Magma <NA>       0.11  0.02  79.1    NA    NA NA       NA    NA
##  6 analy Magma Vignola  NA     0.63  81.5    NA    NA NA       NA    NA
##  7 analy Conta Erokhin  NA     0.12  29.7    NA    NA 53.0     NA    NA
##  8 analy Conta <NA>      NA     0.81  17.8    NA    NA 65.4     NA    NA
##  9 analy Conta <NA>      NA     0.12  25.8    NA    NA 57.2     NA    NA
## 10 analy Conta <NA>      NA     0.77  19.0    NA    NA 64.0     NA    NA
## #  with 44 more rows, and 32 more variables: Fe2O3 <dbl>, FeO <dbl>,
## #   MnO <dbl>, ZnO <dbl>, `BeO calc.` <dbl>, MgO <dbl>, CaO <dbl>, Na2O <dbl>,
## #   K2O <dbl>, Cs2O <dbl>, Total <dbl>, `Mineral formulae based on 4 O atoms, 1
## #   Be atom and valence calculation` <dbl>, Si <dbl>, Ti <dbl>, Al <dbl>,
## #   Ga <dbl>, V <dbl>, Cr <dbl>, Sc <dbl>, Y <dbl>, `Fe3+` <dbl>, `Fe2+` <dbl>,
## #   Mn <dbl>, Zn <dbl>, Mg <dbl>, Ca <dbl>, Na <dbl>, K <dbl>, Cs <dbl>, `Sum
## #   cat.` <dbl>, Be <dbl>, O <dbl>
…
Now, try to filter the dataframe by those minerals, which have BeO calc. more or equal to 20wt% using the %>% operator and without it.

Add another filter to the previous one: filter out those rows which doesnt have a Reference. Hint: a function is.na() can help you check if the value is NA.

4.1.2 arrange()

It allows you to change the order of the rows. This functions works just the same as filter() except that instead of selecting rows, it changes their order. Theres additional function desc() that could be used to arrange rows in descending order.

Lets arrange our dataframe by BeO content in ascending order:

initial_data_t %>% 
  arrange(`BeO calc.`)

## # A tibble: 143 x 43
##    Sample Origin Reference  SiO2  TiO2 Al2O3 Ga2O3  V2O3 Cr2O3 Sc2O3  Y2O3 Fe2O3
##    <chr>  <chr>  <chr>     <dbl> <dbl> <dbl> <dbl> <dbl> <dbl> <dbl> <dbl> <dbl>
##  1 analy Conta <NA>         NA  0.61  13.4    NA 0.28   68.9    NA    NA NA   
##  2 analy Conta <NA>         NA  0.33  13.6    NA 0.38   68.9    NA    NA NA   
##  3 analy Conta <NA>         NA  1.24  16.1    NA 0.35   65.5    NA    NA NA   
##  4 analy Conta <NA>         NA  1.65  16.6    NA 0.290  64.7    NA    NA NA   
##  5 analy Conta <NA>         NA  2.97  18.2    NA 0.4    61.0    NA    NA NA   
##  6 analy Conta <NA>         NA  1.85  16.2    NA 0.31   65.1    NA    NA NA   
##  7 analy Conta <NA>         NA  0.37  17.4    NA 0.23   65.1    NA    NA NA   
##  8 analy Conta <NA>         NA NA     18.8    NA 0.26   63.8    NA    NA NA   
##  9 analy Conta <NA>         NA NA     18.5    NA 0.28   64.2    NA    NA  0.31
## 10 analy Conta <NA>         NA  1.01  16.5    NA 0.3    66.3    NA    NA NA   
## #  with 133 more rows, and 31 more variables: FeO <dbl>, MnO <dbl>, ZnO <dbl>,
## #   `BeO calc.` <dbl>, MgO <dbl>, CaO <dbl>, Na2O <dbl>, K2O <dbl>, Cs2O <dbl>,
## #   Total <dbl>, `Mineral formulae based on 4 O atoms, 1 Be atom and valence
## #   calculation` <dbl>, Si <dbl>, Ti <dbl>, Al <dbl>, Ga <dbl>, V <dbl>,
## #   Cr <dbl>, Sc <dbl>, Y <dbl>, `Fe3+` <dbl>, `Fe2+` <dbl>, Mn <dbl>,
## #   Zn <dbl>, Mg <dbl>, Ca <dbl>, Na <dbl>, K <dbl>, Cs <dbl>, `Sum
## #   cat.` <dbl>, Be <dbl>, O <dbl>

and now in the descending:

initial_data_t %>% 
  arrange(desc(`BeO calc.`))

## # A tibble: 143 x 43
##    Sample Origin Reference   SiO2  TiO2 Al2O3  Ga2O3   V2O3 Cr2O3 Sc2O3  Y2O3
##    <chr>  <chr>  <chr>      <dbl> <dbl> <dbl>  <dbl>  <dbl> <dbl> <dbl> <dbl>
##  1 analy Magma Vignola  NA      0.63  81.5 NA     NA     NA       NA    NA
##  2 analy Metam <NA>      NA     NA     81.1 NA     NA     NA       NA    NA
##  3 analy Metam <NA>      NA     NA     80.9 NA     NA     NA       NA    NA
##  4 analy Metam <NA>      NA     NA     80.9 NA     NA     NA       NA    NA
##  5 analy Metam <NA>      NA     NA     81.0 NA     NA     NA       NA    NA
##  6 analy Metam <NA>      NA     NA     80.8 NA     NA     NA       NA    NA
##  7 analy Metam <NA>      NA     NA     80.6 NA     NA     NA       NA    NA
##  8 analy Albit <NA>       0.047 NA     81.4  0.064  0.019 NA       NA    NA
##  9 analy Granu Downes,   0.04  NA     78.6 NA     NA      1.36    NA    NA
## 10 analy Metam <NA>      NA     NA     80.4 NA     NA     NA       NA    NA
## #  with 133 more rows, and 32 more variables: Fe2O3 <dbl>, FeO <dbl>,
## #   MnO <dbl>, ZnO <dbl>, `BeO calc.` <dbl>, MgO <dbl>, CaO <dbl>, Na2O <dbl>,
## #   K2O <dbl>, Cs2O <dbl>, Total <dbl>, `Mineral formulae based on 4 O atoms, 1
## #   Be atom and valence calculation` <dbl>, Si <dbl>, Ti <dbl>, Al <dbl>,
## #   Ga <dbl>, V <dbl>, Cr <dbl>, Sc <dbl>, Y <dbl>, `Fe3+` <dbl>, `Fe2+` <dbl>,
## #   Mn <dbl>, Zn <dbl>, Mg <dbl>, Ca <dbl>, Na <dbl>, K <dbl>, Cs <dbl>, `Sum
## #   cat.` <dbl>, Be <dbl>, O <dbl>

We are also able to apply sorting using multiple columns:

initial_data_t %>% 
  arrange(desc(`BeO calc.`), desc(TiO2), desc(Cr2O3))

## # A tibble: 143 x 43
##    Sample Origin Reference   SiO2  TiO2 Al2O3  Ga2O3   V2O3 Cr2O3 Sc2O3  Y2O3
##    <chr>  <chr>  <chr>      <dbl> <dbl> <dbl>  <dbl>  <dbl> <dbl> <dbl> <dbl>
##  1 analy Magma Vignola  NA      0.63  81.5 NA     NA     NA       NA    NA
##  2 analy Metam <NA>      NA     NA     81.1 NA     NA     NA       NA    NA
##  3 analy Metam <NA>      NA     NA     80.9 NA     NA     NA       NA    NA
##  4 analy Metam <NA>      NA     NA     80.9 NA     NA     NA       NA    NA
##  5 analy Metam <NA>      NA     NA     81.0 NA     NA     NA       NA    NA
##  6 analy Metam <NA>      NA     NA     80.8 NA     NA     NA       NA    NA
##  7 analy Metam <NA>      NA     NA     80.6 NA     NA     NA       NA    NA
##  8 analy Albit <NA>       0.047 NA     81.4  0.064  0.019 NA       NA    NA
##  9 analy Granu Downes,   0.04  NA     78.6 NA     NA      1.36    NA    NA
## 10 analy Metam <NA>      NA     NA     80.4 NA     NA     NA       NA    NA
## #  with 133 more rows, and 32 more variables: Fe2O3 <dbl>, FeO <dbl>,
## #   MnO <dbl>, ZnO <dbl>, `BeO calc.` <dbl>, MgO <dbl>, CaO <dbl>, Na2O <dbl>,
## #   K2O <dbl>, Cs2O <dbl>, Total <dbl>, `Mineral formulae based on 4 O atoms, 1
## #   Be atom and valence calculation` <dbl>, Si <dbl>, Ti <dbl>, Al <dbl>,
## #   Ga <dbl>, V <dbl>, Cr <dbl>, Sc <dbl>, Y <dbl>, `Fe3+` <dbl>, `Fe2+` <dbl>,
## #   Mn <dbl>, Zn <dbl>, Mg <dbl>, Ca <dbl>, Na <dbl>, K <dbl>, Cs <dbl>, `Sum
## #   cat.` <dbl>, Be <dbl>, O <dbl>
…
4.2 Functions to work with variables (columns)

4.2.1 select()

It allows you to choose rows based on column values.

More often than not, we want to work with only a small number of variables (columns). select() allows us to choose columns of interest!

We can choose one or multiple columns..

initial_data_t %>% 
  select(Sample, TiO2, Cr2O3)

## # A tibble: 143 x 3
##    Sample       TiO2 Cr2O3
##    <chr>       <dbl> <dbl>
##  1 analysis 1   0.62  0.03
##  2 analysis 2   0.11  0.02
##  3 analysis 3   0.23  0.04
##  4 analysis 4   0.54  0.04
##  5 analysis 5   0.02 NA   
##  6 analysis 6   0.63 NA   
##  7 analysis 7  NA     0.09
##  8 analysis 8  NA    NA   
##  9 analysis 9   0.4  NA   
## 10 analysis 10  0.24 NA   
## #  with 133 more rows

a range of columns by using : operator:

initial_data_t %>% 
  select(Sample, SiO2:Cr2O3)

## # A tibble: 143 x 7
##    Sample       SiO2  TiO2 Al2O3 Ga2O3  V2O3 Cr2O3
##    <chr>       <dbl> <dbl> <dbl> <dbl> <dbl> <dbl>
##  1 analysis 1   0.02  0.62  79.6    NA    NA  0.03
##  2 analysis 2   0.02  0.11  78.6    NA    NA  0.02
##  3 analysis 3   0.04  0.23  80.4    NA    NA  0.04
##  4 analysis 4   0.02  0.54  78.3    NA    NA  0.04
##  5 analysis 5   0.11  0.02  79.1    NA    NA NA   
##  6 analysis 6  NA     0.63  81.5    NA    NA NA   
##  7 analysis 7  NA    NA     76.9    NA    NA  0.09
##  8 analysis 8  NA    NA     77.3    NA    NA NA   
##  9 analysis 9  NA     0.4   75.5    NA    NA NA   
## 10 analysis 10 NA     0.24  74.6    NA    NA NA   
## #  with 133 more rows

we can choose which columns NOT to include:

initial_data_t %>% 
  select(Sample, !TiO2:Cr2O3)

## # A tibble: 143 x 38
##    Sample Origin Reference  SiO2 Sc2O3  Y2O3  Fe2O3    FeO   MnO   ZnO
##    <chr>  <chr>  <chr>     <dbl> <dbl> <dbl>  <dbl>  <dbl> <dbl> <dbl>
##  1 analy Magma Merino e  0.02    NA    NA NA      0.5      NA    NA
##  2 analy Magma Merino e  0.02    NA    NA  0.580  0.03     NA    NA
##  3 analy Magma <NA>       0.04    NA    NA  0.33   0.25     NA    NA
##  4 analy Magma <NA>       0.02    NA    NA  0.11   0.34     NA    NA
##  5 analy Magma <NA>       0.11    NA    NA  0.3   NA        NA    NA
##  6 analy Magma Vignola  NA       NA    NA  0.1    0.570    NA    NA
##  7 analy Metam ek, V NA       NA    NA  3.8   NA        NA    NA
##  8 analy Metam <NA>      NA       NA    NA  3.42  NA        NA    NA
##  9 analy Metam <NA>      NA       NA    NA  4.03   0.06     NA    NA
## 10 analy Metam <NA>      NA       NA    NA  5.52  NA        NA    NA
## #  with 133 more rows, and 28 more variables: `BeO calc.` <dbl>, MgO <dbl>,
## #   CaO <dbl>, Na2O <dbl>, K2O <dbl>, Cs2O <dbl>, Total <dbl>, `Mineral
## #   formulae based on 4 O atoms, 1 Be atom and valence calculation` <dbl>,
## #   Si <dbl>, Ti <dbl>, Al <dbl>, Ga <dbl>, V <dbl>, Cr <dbl>, Sc <dbl>,
## #   Y <dbl>, `Fe3+` <dbl>, `Fe2+` <dbl>, Mn <dbl>, Zn <dbl>, Mg <dbl>,
## #   Ca <dbl>, Na <dbl>, K <dbl>, Cs <dbl>, `Sum cat.` <dbl>, Be <dbl>, O <dbl>
…
starts_with()

ends_with()

matches()

contains()

the names of these functions already answer the question what each does, but here are few examples. Lets select all columns that starts with the character Si or character Ti:

initial_data_t %>% 
  select(starts_with(c('Si', 'Ti')))

## # A tibble: 143 x 4
##     SiO2     Si  TiO2     Ti
##    <dbl>  <dbl> <dbl>  <dbl>
##  1  0.02 NA      0.62  0.01 
##  2  0.02 NA      0.11  0.002
##  3  0.04  0.001  0.23  0.004
##  4  0.02 NA      0.54  0.009
##  5  0.11  0.002  0.02 NA    
##  6 NA    NA      0.63  0.01 
##  7 NA    NA     NA    NA    
##  8 NA    NA     NA    NA    
##  9 NA    NA      0.4   0.006
## 10 NA    NA      0.24  0.004
## #  with 133 more rows

now, lets select the cations from our dataset:

initial_data_t %>% 
  select(!contains('O'))

## # A tibble: 143 x 21
##    Sample Reference     Si     Ti    Al    Ga     V     Cr    Sc     Y `Fe3+`
##    <chr>  <chr>      <dbl>  <dbl> <dbl> <dbl> <dbl>  <dbl> <dbl> <dbl>  <dbl>
##  1 analy Merino e NA      0.01   1.98    NA    NA  0.001    NA    NA NA    
##  2 analy Merino e NA      0.002  1.99    NA    NA NA        NA    NA  0.009
##  3 analy <NA>       0.001  0.004  1.98    NA    NA  0.001    NA    NA  0.005
##  4 analy <NA>      NA      0.009  1.98    NA    NA  0.001    NA    NA  0.002
##  5 analy <NA>       0.002 NA      1.99    NA    NA NA        NA    NA  0.005
##  6 analy Vignola  NA      0.01   1.98    NA    NA NA        NA    NA  0.002
##  7 analy ek, V NA     NA      1.93    NA    NA  0.002    NA    NA  0.061
##  8 analy <NA>      NA     NA      1.94    NA    NA NA        NA    NA  0.055
##  9 analy <NA>      NA      0.006  1.92    NA    NA NA        NA    NA  0.065
## 10 analy <NA>      NA      0.004  1.90    NA    NA NA        NA    NA  0.09 
## #  with 133 more rows, and 10 more variables: `Fe2+` <dbl>, Mn <dbl>,
## #   Zn <dbl>, Mg <dbl>, Ca <dbl>, Na <dbl>, K <dbl>, Cs <dbl>, `Sum
## #   cat.` <dbl>, Be <dbl>

4.2.2 rename()

It allows you rename columns.

Often, we might need to rename our variables to a more appropriate name. Here we can use the rename() function!

initial_data_t %>% 
  rename(silica = SiO2, alumina = Al2O3)

## # A tibble: 143 x 43
##    Sample Origin Reference silica  TiO2 alumina Ga2O3  V2O3 Cr2O3 Sc2O3  Y2O3
##    <chr>  <chr>  <chr>      <dbl> <dbl>   <dbl> <dbl> <dbl> <dbl> <dbl> <dbl>
##  1 analy Magma Merino e   0.02  0.62    79.6    NA    NA  0.03    NA    NA
##  2 analy Magma Merino e   0.02  0.11    78.6    NA    NA  0.02    NA    NA
##  3 analy Magma <NA>        0.04  0.23    80.4    NA    NA  0.04    NA    NA
##  4 analy Magma <NA>        0.02  0.54    78.3    NA    NA  0.04    NA    NA
##  5 analy Magma <NA>        0.11  0.02    79.1    NA    NA NA       NA    NA
##  6 analy Magma Vignola   NA     0.63    81.5    NA    NA NA       NA    NA
##  7 analy Metam ek, V  NA    NA       76.9    NA    NA  0.09    NA    NA
##  8 analy Metam <NA>       NA    NA       77.3    NA    NA NA       NA    NA
##  9 analy Metam <NA>       NA     0.4     75.5    NA    NA NA       NA    NA
## 10 analy Metam <NA>       NA     0.24    74.6    NA    NA NA       NA    NA
## #  with 133 more rows, and 32 more variables: Fe2O3 <dbl>, FeO <dbl>,
## #   MnO <dbl>, ZnO <dbl>, `BeO calc.` <dbl>, MgO <dbl>, CaO <dbl>, Na2O <dbl>,
## #   K2O <dbl>, Cs2O <dbl>, Total <dbl>, `Mineral formulae based on 4 O atoms, 1
## #   Be atom and valence calculation` <dbl>, Si <dbl>, Ti <dbl>, Al <dbl>,
## #   Ga <dbl>, V <dbl>, Cr <dbl>, Sc <dbl>, Y <dbl>, `Fe3+` <dbl>, `Fe2+` <dbl>,
## #   Mn <dbl>, Zn <dbl>, Mg <dbl>, Ca <dbl>, Na <dbl>, K <dbl>, Cs <dbl>, `Sum
## #   cat.` <dbl>, Be <dbl>, O <dbl>

The latter returns the whole data frame with renamed columns.

4.2.3 mutate()

It allows you to create columns.

This is a very handy method for calculating new columns.

initial_data_t %>% 
  mutate(ti_to_be = TiO2/`BeO calc.`) %>%
  select(Sample, TiO2, `BeO calc.`, ti_to_be)

## # A tibble: 143 x 4
##    Sample       TiO2 `BeO calc.` ti_to_be
##    <chr>       <dbl>       <dbl>    <dbl>
##  1 analysis 1   0.62        19.7  0.0314 
##  2 analysis 2   0.11        19.4  0.00566
##  3 analysis 3   0.23        19.9  0.0116 
##  4 analysis 4   0.54        19.4  0.0278 
##  5 analysis 5   0.02        19.5  0.00103
##  6 analysis 6   0.63        20.2  0.0312 
##  7 analysis 7  NA           19.5 NA      
##  8 analysis 8  NA           19.6 NA      
##  9 analysis 9   0.4         19.3  0.0208 
## 10 analysis 10  0.24        19.3  0.0124 
## #  with 133 more rows

we can calculate multiple columns at once:

initial_data_t %>% 
  mutate(ti_to_be = TiO2/`BeO calc.`,
         cr_to_ti = Cr2O3/TiO2) %>%
  select(Sample, TiO2, Cr2O3, `BeO calc.`, ti_to_be, cr_to_ti)

## # A tibble: 143 x 6
##    Sample       TiO2 Cr2O3 `BeO calc.` ti_to_be cr_to_ti
##    <chr>       <dbl> <dbl>       <dbl>    <dbl>    <dbl>
##  1 analysis 1   0.62  0.03        19.7  0.0314    0.0484
##  2 analysis 2   0.11  0.02        19.4  0.00566   0.182 
##  3 analysis 3   0.23  0.04        19.9  0.0116    0.174 
##  4 analysis 4   0.54  0.04        19.4  0.0278    0.0741
##  5 analysis 5   0.02 NA           19.5  0.00103  NA     
##  6 analysis 6   0.63 NA           20.2  0.0312   NA     
##  7 analysis 7  NA     0.09        19.5 NA        NA     
##  8 analysis 8  NA    NA           19.6 NA        NA     
##  9 analysis 9   0.4  NA           19.3  0.0208   NA     
## 10 analysis 10  0.24 NA           19.3  0.0124   NA     
## #  with 133 more rows
…
